{
	"IcoMoonType": "selection",
	"icons": [
		{
			"icon": {
				"paths": [
					"M753.333 85.333q69.667 0 128.5 34.333t93.167 93.167 34.333 128.5q0 50-19.167 97.167t-55.833 83.833l-422.333 422.333-422.333-422.333q-36.667-36.667-55.833-83.833t-19.167-97.167q0-69.667 34.333-128.5t93.167-93.167 128.5-34.333q50.333 0 97.167 19t83.833 56l60.333 60.333 60.333-60.333q36.667-36.667 83.833-55.833t97.167-19.167zM753.333 170.667q-33.333 0-64.667 12.667t-56 37.333l-120.667 120.667-120.667-120.667q-24.667-24.667-56-37.333t-64.667-12.667q-46.667 0-85.833 22.833t-62 62-22.833 85.833q0 33.333 12.667 64.667t37.333 56l362 362 362-362q24.667-24.667 37.333-56t12.667-64.667q0-46.667-22.833-85.833t-62-62-85.833-22.833z"
				],
				"tags": [
					"heart"
				],
				"defaultCode": 57380,
				"grid": 24
			},
			"properties": {
				"id": 24,
				"order": 8,
				"prevSize": 24,
				"code": 104,
				"name": "heart",
				"ligatures": ""
			},
			"setIdx": 0,
			"iconIdx": 24
		},
		{
			"icon": {
				"paths": [
					"M128 213.333h768q17.667 0 30.167 12.5t12.5 30.167-12.5 30.167-30.167 12.5h-768q-17.667 0-30.167-12.5t-12.5-30.167 12.5-30.167 30.167-12.5zM128 725.333h768q17.667 0 30.167 12.5t12.5 30.167-12.5 30.167-30.167 12.5h-768q-17.667 0-30.167-12.5t-12.5-30.167 12.5-30.167 30.167-12.5zM128 554.667h768q17.667 0 30.167 12.5t12.5 30.167-12.5 30.167-30.167 12.5h-768q-17.667 0-30.167-12.5t-12.5-30.167 12.5-30.167 30.167-12.5zM128 384h768q17.667 0 30.167 12.5t12.5 30.167-12.5 30.167-30.167 12.5h-768q-17.667 0-30.167-12.5t-12.5-30.167 12.5-30.167 30.167-12.5z"
				],
				"tags": [
					"align-justify"
				],
				"defaultCode": 57382,
				"grid": 24
			},
			"properties": {
				"id": 26,
				"order": 5,
				"prevSize": 24,
				"code": 61,
				"name": "align-justify",
				"ligatures": ""
			},
			"setIdx": 0,
			"iconIdx": 26
		},
		{
			"icon": {
				"paths": [
					"M426.667 42.667q78 0 149.167 30.5t122.5 81.833 81.833 122.5 30.5 149.167q0 67-21.833 128.333t-62.167 111.333l242.333 242q12.333 12.333 12.333 30.333 0 18.333-12.167 30.5t-30.5 12.167q-18 0-30.333-12.333l-242-242.333q-50 40.333-111.333 62.167t-128.333 21.833q-78 0-149.167-30.5t-122.5-81.833-81.833-122.5-30.5-149.167 30.5-149.167 81.833-122.5 122.5-81.833 149.167-30.5zM426.667 128q-60.667 0-116 23.667t-95.333 63.667-63.667 95.333-23.667 116 23.667 116 63.667 95.333 95.333 63.667 116 23.667 116-23.667 95.333-63.667 63.667-95.333 23.667-116-23.667-116-63.667-95.333-95.333-63.667-116-23.667z"
				],
				"tags": [
					"search"
				],
				"defaultCode": 57398,
				"grid": 24
			},
			"properties": {
				"id": 36,
				"order": 7,
				"prevSize": 24,
				"code": 63,
				"name": "search",
				"ligatures": ""
			},
			"setIdx": 0,
			"iconIdx": 36
		},
		{
			"icon": {
				"paths": [
					"M426.667 170.667q17.667 0 30.167 12.5t12.5 30.167q0 18-12.667 30.333l-225.667 225.667h665q17.667 0 30.167 12.5t12.5 30.167-12.5 30.167-30.167 12.5h-665l225.667 225.667q12.667 12.333 12.667 30.333 0 17.667-12.5 30.167t-30.167 12.5q-18 0-30.333-12.333l-298.667-298.667q-12.333-13-12.333-30.333t12.333-30.333l298.667-298.667q12.667-12.333 30.333-12.333z"
				],
				"tags": [
					"arrow-left"
				],
				"defaultCode": 57492,
				"grid": 24
			},
			"properties": {
				"id": 94,
				"order": 6,
				"prevSize": 24,
				"code": 60,
				"name": "arrow-left",
				"ligatures": ""
			},
			"setIdx": 0,
			"iconIdx": 94
		},
		{
			"icon": {
				"paths": [
					"M512 85.333q17.667 0 30.167 12.5t12.5 30.167v341.333h341.333q17.667 0 30.167 12.5t12.5 30.167-12.5 30.167-30.167 12.5h-341.333v341.333q0 17.667-12.5 30.167t-30.167 12.5-30.167-12.5-12.5-30.167v-341.333h-341.333q-17.667 0-30.167-12.5t-12.5-30.167 12.5-30.167 30.167-12.5h341.333v-341.333q0-17.667 12.5-30.167t30.167-12.5z"
				],
				"tags": [
					"plus"
				],
				"defaultCode": 57620,
				"grid": 24
			},
			"properties": {
				"id": 114,
				"order": 3,
				"prevSize": 24,
				"code": 43,
				"name": "plus",
				"ligatures": ""
			},
			"setIdx": 0,
			"iconIdx": 114
		},
		{
			"icon": {
				"paths": [
					"M128 469.333h768q17.667 0 30.167 12.5t12.5 30.167-12.5 30.167-30.167 12.5h-768q-17.667 0-30.167-12.5t-12.5-30.167 12.5-30.167 30.167-12.5z"
				],
				"tags": [
					"minus"
				],
				"defaultCode": 57621,
				"grid": 24
			},
			"properties": {
				"id": 115,
				"order": 4,
				"prevSize": 24,
				"code": 45,
				"name": "minus",
				"ligatures": ""
			},
			"setIdx": 0,
			"iconIdx": 115
		},
		{
			"icon": {
				"paths": [
					"M896 213.333q18.333 0 30.5 12.167t12.167 30.5q0 18-12.333 30.333l-512 512q-12.333 12.333-30.333 12.333t-30.333-12.333l-256-256q-12.333-12.333-12.333-30.333 0-18.333 12.167-30.5t30.5-12.167q18 0 30.333 12.333l225.667 226 481.667-482q12.333-12.333 30.333-12.333z"
				],
				"tags": [
					"check"
				],
				"defaultCode": 57622,
				"grid": 24
			},
			"properties": {
				"id": 116,
				"order": 1,
				"prevSize": 24,
				"code": 121,
				"name": "check",
				"ligatures": ""
			},
			"setIdx": 0,
			"iconIdx": 116
		},
		{
			"icon": {
				"paths": [
					"M810.667 170.667q18.333 0 30.5 12.167t12.167 30.5q0 18-12.333 30.333l-268.667 268.333 268.667 268.333q12.333 12.333 12.333 30.333 0 18.333-12.167 30.5t-30.5 12.167q-18 0-30.333-12.333l-268.333-268.667-268.333 268.667q-12.333 12.333-30.333 12.333-18.333 0-30.5-12.167t-12.167-30.5q0-18 12.333-30.333l268.667-268.333-268.667-268.333q-12.333-12.333-12.333-30.333 0-18.333 12.167-30.5t30.5-12.167q18 0 30.333 12.333l268.333 268.667 268.333-268.667q12.333-12.333 30.333-12.333z"
				],
				"tags": [
					"cross"
				],
				"defaultCode": 57623,
				"grid": 24
			},
			"properties": {
				"id": 117,
				"order": 2,
				"prevSize": 24,
				"code": 110,
				"name": "cross",
				"ligatures": ""
			},
			"setIdx": 0,
			"iconIdx": 117
		}
	],
	"height": 1024,
	"metadata": {
		"name": "icomoon-quiz"
	},
	"preferences": {
		"showGlyphs": true,
		"showQuickUse": true,
		"fontPref": {
			"prefix": "icon-",
			"metadata": {
				"fontFamily": "icomoon-quiz",
				"majorVersion": 1,
				"minorVersion": 0
			},
			"metrics": {
				"emSize": 512,
				"baseline": 6.25,
				"whitespace": 50
			},
			"showMetrics": true,
			"showMetadata": true,
			"showVersion": true
		},
		"imagePref": {},
		"historySize": 100,
		"showCodes": true,
		"search": ""
	}
}